{
    "fields": [
        {
            "name": "title",
            "type": "string"
        },
        {
            "name": "status",
            "type": "select",
            "options": {"1":"Active", "0":"Disabled"}
        },
        {
            "name": "category_id",
            "type": "integer#unsigned"
        }
    ],
    "foreign_keys": [
        {
            "column": "category_id",
            "references": "id",
            "on": "categories",
            "onDelete": "cascade"
        }
    ],
    "relationships": [
        {
            "name": "category",
            "type": "belongsTo",
            "class": "App\\Models\\Category"
        }
    ],
    "validations": [
        {
            "field": "title",
            "rules": "required|max:10"
        }
    ]
}